<?xml version="1.0" encoding="UTF-8"?>
<svg width="38px" height="36px" viewBox="0 0 38 36" version="1.1" xmlns="http://www.w3.org/2000/svg" xmlns:xlink="http://www.w3.org/1999/xlink">
    <!-- Generator: Sketch 48.2 (47327) - http://www.bohemiancoding.com/sketch -->
    <title>medal</title>
    <desc>Created with Sketch.</desc>
    <defs></defs>
    <g id="Desktop" stroke="none" stroke-width="1" fill="none" fill-rule="evenodd" transform="translate(-422.000000, -518.000000)">
        <g id="Бенефиты" transform="translate(0.000000, 491.000000)" fill="#3CE058" fill-rule="nonzero">
            <g id="2" transform="translate(422.000000, 24.000000)">
                <g id="medal" transform="translate(0.000000, 3.000000)">
                    <path d="M37.5341311,5.96102459 L31.8198689,0.247057377 C31.6684918,0.0957540984 31.4632623,0.0106967213 31.2491803,0.0106967213 L6.52131148,0.0106967213 C6.30730328,0.0106967213 6.10192623,0.0957540984 5.95062295,0.247057377 L0.236434426,5.96102459 C-0.0340819672,6.23161475 -0.0775327869,6.65490984 0.132491803,6.97477869 L12.0855984,25.1769098 C11.6082295,26.1660984 11.3405164,27.2747951 11.3405164,28.4447951 C11.3405164,32.6048607 14.7250328,35.989377 18.8850246,35.989377 C23.0450164,35.989377 26.4295328,32.6047869 26.4295328,28.4447951 C26.4295328,27.2749426 26.1618934,26.1664672 25.6846721,25.1773525 L37.6381475,6.97477869 C37.8480984,6.65490984 37.8046475,6.23161475 37.5341311,5.96102459 Z M6.85556557,1.62486885 L30.9148525,1.62486885 L35.0149426,5.72503279 L29.3011967,5.72503279 C29.2955164,5.72503279 29.2899098,5.72488525 29.2842295,5.72503279 L8.48633607,5.72503279 C8.48043443,5.72488525 8.47453279,5.72503279 8.46877869,5.72503279 L2.75554918,5.72503279 L6.85556557,1.62486885 Z M27.8044672,7.33905738 L18.8977131,20.9004344 C18.8935082,20.9004344 18.8893033,20.9002869 18.8850246,20.9002869 C18.8808934,20.9002869 18.8769098,20.9004344 18.8728525,20.9004344 L9.96595082,7.33905738 L27.8044672,7.33905738 Z M2.30281967,7.33905738 L8.03486066,7.33905738 L17.084582,21.1178361 C15.469082,21.5149426 14.0566721,22.433459 13.0365,23.6843115 L2.30281967,7.33905738 Z M18.8850246,34.3753525 C15.615,34.3753525 12.9546885,31.7149672 12.9546885,28.4448689 C12.9546885,25.1747705 15.6150738,22.5145328 18.8850246,22.5145328 C22.1550492,22.5145328 24.8154344,25.174918 24.8154344,28.4449426 C24.8154344,31.7149672 22.1550492,34.3753525 18.8850246,34.3753525 Z M24.7337705,23.6847541 C23.7137459,22.4338279 22.3012623,21.5152377 20.6858361,21.1180574 L29.7355574,7.33905738 L35.4675984,7.33905738 L24.7337705,23.6847541 Z" id="Shape"></path>
                    <path d="M19.1591557,25.4910984 L17.8769508,25.4910984 C17.4312295,25.4910984 17.0699016,25.8525 17.0699016,26.2981475 C17.0699016,26.7437951 17.4312295,27.1051967 17.8769508,27.1051967 L18.3520328,27.1051967 L18.3520328,31.4695328 C18.3520328,31.9151803 18.7133607,32.276582 19.159082,32.276582 C19.6048033,32.276582 19.9661311,31.9151803 19.9661311,31.4695328 L19.9661311,26.2981475 C19.9662049,25.8524262 19.604877,25.4910984 19.1591557,25.4910984 Z" id="Shape"></path>
                </g>
            </g>
        </g>
    </g>
</svg>