<?xml version="1.0" encoding="UTF-8"?>
<svg width="41px" height="36px" viewBox="0 0 41 36" version="1.1" xmlns="http://www.w3.org/2000/svg" xmlns:xlink="http://www.w3.org/1999/xlink">
    <!-- Generator: Sketch 48.2 (47327) - http://www.bohemiancoding.com/sketch -->
    <title>checked</title>
    <desc>Created with Sketch.</desc>
    <defs></defs>
    <g id="Desktop" stroke="none" stroke-width="1" fill="none" fill-rule="evenodd" transform="translate(-1007.000000, -515.000000)">
        <g id="Бенефиты" transform="translate(0.000000, 491.000000)" fill="#3CE058" fill-rule="nonzero">
            <g id="4" transform="translate(1007.000000, 24.000000)">
                <g id="checked">
                    <path d="M35.2974767,16.470157 C35.2548576,15.8787471 34.7416221,15.4348169 34.1493488,15.4764157 C33.5578605,15.5190349 33.1129884,16.0330552 33.1555291,16.6245436 C33.1819797,16.989907 33.1952442,17.3647674 33.1952442,17.7383721 C33.1952442,26.2983924 26.2312849,33.2623517 17.671343,33.2623517 C9.11140116,33.2623517 2.14744186,26.298314 2.14744186,17.7383721 C2.14744186,9.17843023 9.11140116,2.21447093 17.6714215,2.21447093 C21.0614128,2.21447093 24.2809273,3.28725 26.9817122,5.31672384 C27.4558605,5.67290407 28.1288198,5.57738372 28.4850785,5.10339244 C28.8414157,4.62932267 28.7458953,3.9562064 28.2718256,3.60002616 C25.1959448,1.28877907 21.5303808,0.0671075581 17.671343,0.0671075581 C7.92740407,0.0670290698 0,7.99443314 0,17.7383721 C0,27.482311 7.92740407,35.4096366 17.6714215,35.4096366 C27.415439,35.4096366 35.342686,27.4823895 35.342686,17.7383721 C35.342686,17.313436 35.3273808,16.8867733 35.2974767,16.470157 Z" id="Shape"></path>
                    <path d="M38.9612355,2.49357558 C37.3280494,0.860468023 34.6705901,0.860468023 33.0374041,2.49357558 L17.566561,17.9642616 L12.0822645,12.4798866 C10.4490785,10.8467791 7.79161919,10.8467791 6.15843314,12.4798866 C4.52524709,14.1130727 4.52524709,16.770532 6.15843314,18.403718 L15.6038023,27.8490872 C16.1449797,28.3902645 16.8557703,28.660814 17.566561,28.660814 C18.2774302,28.660814 18.9882209,28.3902645 19.5293983,27.8490872 L38.9612355,8.41725 C40.5942645,6.78414244 40.5942645,4.12684012 38.9612355,2.49357558 Z M37.4427994,6.89889244 L18.0108837,26.3308866 C17.766,26.5757703 17.3672791,26.5757703 17.1223953,26.3308866 L7.67702616,16.885439 C6.88107558,16.0894884 6.88107558,14.7945087 7.67702616,13.9985581 C8.07496221,13.6004651 8.59761628,13.4015756 9.12042733,13.4015756 C9.64323837,13.4015756 10.1659709,13.6005436 10.5638285,13.9985581 L16.2057297,19.6404593 C16.5692878,20.003939 17.0526977,20.2040843 17.5666395,20.2040843 C18.0808169,20.2040843 18.5642267,20.0038605 18.9277064,19.6403808 L34.5559186,4.01201163 C35.3516337,3.21606105 36.6468488,3.21606105 37.4427994,4.01201163 C38.2386715,4.80796221 38.2386715,6.10294186 37.4427994,6.89889244 Z" id="Shape"></path>
                </g>
            </g>
        </g>
    </g>
</svg>